{"total_results": 7324, "total_pages": 367, "page": 1, "results": [{"poster_path": "/2gvbZMtV1Zsl7FedJa5ysbpBx2G.jpg", "title": "Dilwale Dulhania Le Jayenge", "overview": "Raj is a rich, carefree, happy-go-lucky second generation NRI. Simran is the daughter of Chaudhary Baldev Singh, who in spite of being an NRI is very strict about adherence to Indian values. Simran has left for India to be married to her childhood fianc\u00e9. Raj leaves for India with a mission at his hands, to claim his lady love under the noses of her whole family. Thus begins a saga.", "release_date": "1995-10-20", "popularity": 47.921149999999997, "original_title": "Dilwale Dulhania Le Jayenge", "backdrop_path": "/nl79FQ8xWZkhL3rDr1v2RFFR6J0.jpg", "vote_count": 731, "video": false, "adult": false, "vote_average": 9.0999999999999996, "genre_ids": [35, 18, 10749], "id": 19404, "original_language": "hi"}, {"poster_path": "/9O7gLzmreU0nGkIB6K3BsJbzvNv.jpg", "title": "The Shawshank Redemption", "overview": "Framed in the 1940s for the double murder of his wife and her lover, upstanding banker Andy Dufresne begins a new life at the Shawshank prison, where he puts his accounting skills to work for an amoral warden. During his long stretch in prison, Dufresne comes to be admired by the other inmates -- including an older prisoner named Red -- for his integrity and unquenchable sense of hope.", "release_date": "1994-09-23", "popularity": 51.259808999999997, "original_title": "The Shawshank Redemption", "backdrop_path": "/xBKGJQsAIeweesB79KC89FpBrVr.jpg", "vote_count": 8621, "video": false, "adult": false, "vote_average": 8.5, "genre_ids": [18, 80], "id": 278, "original_language": "en"}, {"poster_path": "/xq1Ugd62d23K2knRUx6xxuALTZB.jpg", "title": "Your Name.", "overview": "High schoolers Mitsuha and Taki are complete strangers living separate lives. But one night, they suddenly switch places. Mitsuha wakes up in Taki\u2019s body, and he in hers. This bizarre occurrence continues to happen randomly, and the two must adjust their lives around each other.", "release_date": "2016-08-26", "popularity": 55.823709999999998, "original_title": "\u541b\u306e\u540d\u306f\u3002", "backdrop_path": "/7OMAfDJikBxItZBIug0NJig5DHD.jpg", "vote_count": 1180, "video": false, "adult": false, "vote_average": 8.5, "genre_ids": [10749, 16, 18], "id": 372058, "original_language": "ja"}, {"poster_path": "/rPdtLWNsZmAtoZl9PK7S2wE3qiS.jpg", "title": "The Godfather", "overview": "Spanning the years 1945 to 1955, a chronicle of the fictional Italian-American Corleone crime family. When organized crime family patriarch, Vito Corleone barely survives an attempt on his life, his youngest son, Michael steps in to take care of the would-be killers, launching a campaign of bloody revenge.", "release_date": "1972-03-14", "popularity": 54.335140000000003, "original_title": "The Godfather", "backdrop_path": "/6xKCYgH16UuwEGAyroLU6p8HLIn.jpg", "vote_count": 6269, "video": false, "adult": false, "vote_average": 8.5, "genre_ids": [18, 80], "id": 238, "original_language": "en"}, {"poster_path": "/a9CRI9V1xGRQVNDEMnLvmoQCpQn.jpg", "title": "Kill Bill: The Whole Bloody Affair", "overview": "Kill Bill: The Whole Bloody affair is a complete edit of the two part martial arts action films Kill Bill: Volume 1 and Kill Bill: Volume 2. The film was originally scheduled to be released as one part. However, due to the film's over 4 hour running time, it was split into two parts.", "release_date": "2011-03-28", "popularity": 35.167310999999998, "original_title": "Kill Bill: The Whole Bloody Affair", "backdrop_path": "/lCQ5SxicnUrTpRHgeueD1HLhst4.jpg", "vote_count": 76, "video": false, "adult": false, "vote_average": 8.4000000000000004, "genre_ids": [80, 28], "id": 414419, "original_language": "en"}, {"poster_path": "/yPisjyLweCl1tbgwgtzBCNCBle.jpg", "title": "Schindler's List", "overview": "The true story of how businessman Oskar Schindler saved over a thousand Jewish lives from the Nazis while they worked as slaves in his factory during World War II.", "release_date": "1993-11-29", "popularity": 42.530150999999996, "original_title": "Schindler's List", "backdrop_path": "/rIpSszng8P0DL0TimSzZbpfnvh1.jpg", "vote_count": 4666, "video": false, "adult": false, "vote_average": 8.3000000000000007, "genre_ids": [18, 36, 10752], "id": 424, "original_language": "en"}, {"poster_path": "/dL11DBPcRhWWnJcFXl9A07MrqTI.jpg", "title": "Spirited Away", "overview": "A young girl, Chihiro, becomes trapped in a strange new world of spirits. When her parents undergo a mysterious transformation, she must call upon the courage she never knew she had to free her family.", "release_date": "2001-07-20", "popularity": 38.842547000000003, "original_title": "\u5343\u3068\u5343\u5c0b\u306e\u795e\u96a0\u3057", "backdrop_path": "/mnpRKVSXBX6jb56nabvmGKA0Wig.jpg", "vote_count": 4127, "video": false, "adult": false, "vote_average": 8.3000000000000007, "genre_ids": [16, 10751, 14], "id": 129, "original_language": "ja"}, {"poster_path": "/bVq65huQ8vHDd1a4Z37QtuyEvpA.jpg", "title": "The Godfather: Part II", "overview": "In the continuing saga of the Corleone crime family, a young Vito Corleone grows up in Sicily and in 1910s New York. In the 1950s, Michael Corleone attempts to expand the family business into Las Vegas, Hollywood and Cuba.", "release_date": "1974-12-20", "popularity": 39.727708999999997, "original_title": "The Godfather: Part II", "backdrop_path": "/gLbBRyS7MBrmVUNce91Hmx9vzqI.jpg", "vote_count": 3575, "video": false, "adult": false, "vote_average": 8.3000000000000007, "genre_ids": [18, 80], "id": 240, "original_language": "en"}, {"poster_path": "/lIv1QinFqz4dlp5U4lQ6HaiskOZ.jpg", "title": "Whiplash", "overview": "Under the direction of a ruthless instructor, a talented young drummer begins to pursue perfection at any cost, even his humanity.", "release_date": "2014-10-10", "popularity": 56.849460000000001, "original_title": "Whiplash", "backdrop_path": "/6bbZ6XyvgfjhQwbplnUh1LSj1ky.jpg", "vote_count": 4507, "video": false, "adult": false, "vote_average": 8.3000000000000007, "genre_ids": [18], "id": 244786, "original_language": "en"}, {"poster_path": "/82KeyiTv5lyfz4K2KzokXJrn7kR.jpg", "title": "I Corti", "overview": "The shorts of Aldo , Giovanni &amp; Giacomo was the first theatrical show of the trio of comedians Aldo , Giovanni &amp; Giacomo , with the participation of Marina Massironi .  The show is the son of the fortunate trio 's holdings in television as Mai dire Gol, and shows such as The Circus by Paolo Rossi and on the head !  The short was recorded live at the Teatro Nuovo in Ferrara on 28 and 29 March 1996. Produced by Agidi , the theater director is entrusted to the change artist Arturo Brachetti .", "release_date": "1996-01-01", "popularity": 21.587114, "original_title": "I Corti", "backdrop_path": "/y1YrEQazmKcEKgMi4w0JqxxssGX.jpg", "vote_count": 77, "video": false, "adult": false, "vote_average": 8.3000000000000007, "genre_ids": [], "id": 38288, "original_language": "it"}, {"poster_path": "/uHEmM49YphluJnGep8Ef1qwD2QX.jpg", "title": "A Dog's Will", "overview": "The lively Jo\u00e3o Grilo and the sly Chic\u00f3 are poor guys living in the hinterland who cheat a bunch of people in a small Northeast Brazil town. But when they die, they have to be judged by Christ, the Devil and the Virgin Mary, before they are admitted to paradise.", "release_date": "2000-09-10", "popularity": 23.440128999999999, "original_title": "O Auto da Compadecida", "backdrop_path": "/alQqTpmEkxSLgajfEYTsTH6nAKB.jpg", "vote_count": 132, "video": false, "adult": false, "vote_average": 8.3000000000000007, "genre_ids": [12, 35, 18], "id": 40096, "original_language": "pt"}, {"poster_path": "/adw6Lq9FiC9zjYEpOqfq03ituwp.jpg", "title": "Fight Club", "overview": "A ticking-time-bomb insomniac and a slippery soap salesman channel primal male aggression into a shocking new form of therapy. Their concept catches on, with underground \"fight clubs\" forming in every town, until an eccentric gets in the way and ignites an out-of-control spiral toward oblivion.", "release_date": "1999-10-15", "popularity": 39.276851000000001, "original_title": "Fight Club", "backdrop_path": "/8uO0gUM8aNqYLs1OsTBQiXu0fEv.jpg", "vote_count": 10130, "video": false, "adult": false, "vote_average": 8.3000000000000007, "genre_ids": [18], "id": 550, "original_language": "en"}, {"poster_path": "/wJUJROdLOtOzMixkjkx1aaZGSLl.jpg", "title": "In a Heartbeat", "overview": "A closeted boy runs the risk of being outed by his own heart after it pops out of his chest to chase down the boy of his dreams.", "release_date": "2017-06-01", "popularity": 26.335553999999998, "original_title": "In a Heartbeat", "backdrop_path": "/4datX8btikWEikf7esqEe6fhw.jpg", "vote_count": 194, "video": false, "adult": false, "vote_average": 8.3000000000000007, "genre_ids": [10751, 16, 10749, 35], "id": 455661, "original_language": "en"}, {"poster_path": "/dM2w364MScsjFf8pfMbaWUcWrR.jpg", "title": "Pulp Fiction", "overview": "A burger-loving hit man, his philosophical partner, a drug-addled gangster's moll and a washed-up boxer converge in this sprawling, comedic crime caper. Their adventures unfurl in three stories that ingeniously trip back and forth in time.", "release_date": "1994-09-10", "popularity": 106.98162499999999, "original_title": "Pulp Fiction", "backdrop_path": "/9rZg1J6vMQoDVSgRyWcpJa8IAGy.jpg", "vote_count": 9118, "video": false, "adult": false, "vote_average": 8.3000000000000007, "genre_ids": [53, 80], "id": 680, "original_language": "en"}, {"poster_path": "/f7DImXDebOs148U4uPjI61iDvaK.jpg", "title": "Life Is Beautiful", "overview": "A touching story of an Italian book seller of Jewish ancestry who lives in his own little fairy tale. His creative and happy life would come to an abrupt halt when his entire family is deported to a concentration camp during World War II. While locked up he tries to convince his son that the whole thing is just a game.", "release_date": "1997-12-20", "popularity": 31.616574, "original_title": "La vita \u00e8 bella", "backdrop_path": "/bORe0eI72D874TMawOOFvqWS6Xe.jpg", "vote_count": 3902, "video": false, "adult": false, "vote_average": 8.3000000000000007, "genre_ids": [35, 18], "id": 637, "original_language": "it"}, {"poster_path": "/81d8oyEFgj7FlxJqSDXWr8JH8kV.jpg", "title": "Psycho", "overview": "When larcenous real estate clerk Marion Crane goes on the lam with a wad of cash and hopes of starting a new life, she ends up at the notorious Bates Motel, where manager Norman Bates cares for his housebound mother. The place seems quirky, but fine\u2026 until Marion decides to take a shower.", "release_date": "1960-06-16", "popularity": 25.107351000000001, "original_title": "Psycho", "backdrop_path": "/3md49VBCeqY6MSNyAVY6d5eC6bA.jpg", "vote_count": 2518, "video": false, "adult": false, "vote_average": 8.3000000000000007, "genre_ids": [18, 27, 53], "id": 539, "original_language": "en"}, {"poster_path": "/2Sns5oMb356JNdBHgBETjIpRYy9.jpg", "title": "One Flew Over the Cuckoo's Nest", "overview": "While serving time for insanity at a state mental hospital, implacable rabble-rouser, Randle Patrick McMurphy inspires his fellow patients to rebel against the authoritarian rule of head nurse, Mildred Ratched.", "release_date": "1975-11-18", "popularity": 28.101402, "original_title": "One Flew Over the Cuckoo's Nest", "backdrop_path": "/4E7YQcwui0PfNXguf4V2X8YocPC.jpg", "vote_count": 3109, "video": false, "adult": false, "vote_average": 8.3000000000000007, "genre_ids": [18], "id": 510, "original_language": "en"}, {"poster_path": "/he609rnU3tiwBjRklKNa4n2jQSd.jpg", "title": "Black Mirror: White Christmas", "overview": "This feature-length special consists of three interwoven stories. In a mysterious and remote snowy outpost, Matt and Potter share a Christmas meal, swapping creepy tales of their earlier lives in the outside world. Matt is a charismatic American trying to bring the reserved, secretive Potter out of his shell. But are both men who they appear to be? A woman gets thrust into a nightmarish world of 'smart' gadgetry. Plus a look at what would happen if you could 'block' people in real life.", "release_date": "2014-12-16", "popularity": 21.727509999999999, "original_title": "Black Mirror: White Christmas", "backdrop_path": "/rMCew7St2vy9iV3QOPzx15sAkFJ.jpg", "vote_count": 258, "video": false, "adult": false, "vote_average": 8.3000000000000007, "genre_ids": [18, 27, 9648, 878, 53, 10770], "id": 374430, "original_language": "en"}, {"poster_path": "/1hRoyzDtpgMU7Dz4JF22RANzQO7.jpg", "title": "The Dark Knight", "overview": "Batman raises the stakes in his war on crime. With the help of Lt. Jim Gordon and District Attorney Harvey Dent, Batman sets out to dismantle the remaining criminal organizations that plague the streets. The partnership proves to be effective, but they soon find themselves prey to a reign of chaos unleashed by a rising criminal mastermind known to the terrified citizens of Gotham as the Joker.", "release_date": "2008-07-16", "popularity": 37.385641, "original_title": "The Dark Knight", "backdrop_path": "/hqkIcbrOHL86UncnHIsHVcVmzue.jpg", "vote_count": 12679, "video": false, "adult": false, "vote_average": 8.3000000000000007, "genre_ids": [18, 28, 80, 53], "id": 155, "original_language": "en"}, {"poster_path": "/lQy2QVcacuH55k37K9Ox0gw3YpZ.jpg", "title": "Doctor Who: The Day of the Doctor", "overview": "In 2013, something terrible is awakening in London's National Gallery; in 1562, a murderous plot is afoot in Elizabethan England; and somewhere in space an ancient battle reaches its devastating conclusion. All of reality is at stake as the Doctor's own dangerous past comes back to haunt him.", "release_date": "2013-11-23", "popularity": 20.099034, "original_title": "Doctor Who: The Day of the Doctor", "backdrop_path": "/8bxjRFqFztBoXdVEx6q2u66a0s1.jpg", "vote_count": 309, "video": false, "adult": false, "vote_average": 8.3000000000000007, "genre_ids": [878, 12], "id": 313106, "original_language": "en"}]}